{
  "type": "object",
  "properties": {
    "email": {
      "description": "The user email",
      "minLength": 1,
      "type": "string"
    },
    "password": {
      "description": "The user password",
      "minLength": 1,
      "type": "string"
    }
  },
  "required": [
    "email",
    "password"
  ],
  "definitions": {
    "MissionType": {
      "enum": [
        "customer_rating_greater_than",
        "finish_order_in_time",
        "join_rewards_club",
        "time_on_site_less_than"
      ],
      "type": "string"
    }
  },
  "$schema": "http://json-schema.org/draft-07/schema#"
}